<define-tag pagetitle>DLA-3187-1 dropbear</define-tag>
<define-tag report_date>2022-11-14</define-tag>
<define-tag secrefs>CVE-2021-36369</define-tag>
<define-tag packages>dropbear</define-tag>
<define-tag isvulnerable>yes</define-tag>
<define-tag fixed>yes</define-tag>
<define-tag fixed-section>no</define-tag>

#use wml::debian::security

