<define-tag pagetitle>DLA-3202-1 libarchive</define-tag>
<define-tag report_date>2022-11-22</define-tag>
<define-tag secrefs>CVE-2019-19221 CVE-2021-23177 CVE-2021-31566 Bug#945287 Bug#1001986 Bug#1001990</define-tag>
<define-tag packages>libarchive</define-tag>
<define-tag isvulnerable>yes</define-tag>
<define-tag fixed>yes</define-tag>
<define-tag fixed-section>no</define-tag>

#use wml::debian::security

