<define-tag pagetitle>DLA-3215-1 snapd</define-tag>
<define-tag report_date>2022-12-02</define-tag>
<define-tag secrefs>CVE-2022-3328</define-tag>
<define-tag packages>snapd</define-tag>
<define-tag isvulnerable>yes</define-tag>
<define-tag fixed>yes</define-tag>
<define-tag fixed-section>no</define-tag>

#use wml::debian::security

