<define-tag pagetitle>DLA-3189-1 postgresql-11</define-tag>
<define-tag report_date>2022-11-15</define-tag>
<define-tag packages>postgresql-11</define-tag>
<define-tag isvulnerable>yes</define-tag>
<define-tag fixed>yes</define-tag>
<define-tag fixed-section>no</define-tag>

#use wml::debian::security

