#use wml::debian::countries
#include "$(ENGLISHDIR)/blends/blend.defs"

# Note to translators: there is nothing to translate in this file, see the
# blends POT file instead.

# When adding a new blend to this file, ensure that gettext is used for
# the description.
#
# The blend, description and links tags are all mandatory although the body of
# the links tag may be empty if there are no relevant links.

<tr>
<blend "https://wiki.debian.org/Design">Debian Design</blend>
<description><gettext domain="blends">The goal of Debian Design is to provide applications for designers. This includes graphic design, web design and multimedia design.</gettext></description>
<links>
</links>
</tr>

<tr>
<blend "https://wiki.debian.org/DebianParl">DebianParl</blend>
<description><gettext domain="blends">The goal of DebianParl is to provide applications to support the needs of parliamentarians, politicians and their staffers all around the world.</gettext></description>
<links>
</links>
</tr>
