<define-tag pagetitle>DSA-4671-1 vlc</define-tag>
<define-tag report_date>2020-4-30</define-tag>
<define-tag secrefs>CVE-2020-6071 CVE-2020-6072 CVE-2020-6073 CVE-2020-6077 CVE-2020-6078 CVE-2020-6079 CVE-2020-6080</define-tag>
<define-tag packages>vlc</define-tag>
<define-tag isvulnerable>yes</define-tag>
<define-tag fixed>yes</define-tag>
<define-tag fixed-section>no</define-tag>

#use wml::debian::security



</dl>
