<define-tag pagetitle>DLA-2556-1 unbound1.9</define-tag>
<define-tag report_date>2021-2-12</define-tag>
<define-tag secrefs>CVE-2020-12662 CVE-2020-12663 CVE-2020-28935 Bug#977165</define-tag>
<define-tag packages>unbound1.9</define-tag>
<define-tag isvulnerable>yes</define-tag>
<define-tag fixed>yes</define-tag>
<define-tag fixed-section>no</define-tag>

#use wml::debian::security

