<define-tag pagetitle>DLA-2717-2 redis</define-tag>
<define-tag report_date>2021-08-27</define-tag>
<define-tag secrefs>CVE-2021-32761</define-tag>
<define-tag packages>redis</define-tag>
<define-tag isvulnerable>yes</define-tag>
<define-tag fixed>yes</define-tag>
<define-tag fixed-section>no</define-tag>

#use wml::debian::security
