<define-tag pagetitle>DLA-2627-1 xorg-server</define-tag>
<define-tag report_date>2021-04-15</define-tag>
<define-tag secrefs>CVE-2021-3472</define-tag>
<define-tag packages>xorg-server</define-tag>
<define-tag isvulnerable>yes</define-tag>
<define-tag fixed>yes</define-tag>
<define-tag fixed-section>no</define-tag>

#use wml::debian::security
