<define-tag pagetitle>DSA-5367-1 spip</define-tag>
<define-tag report_date>2023-3-02</define-tag>
<define-tag secrefs>CVE-2023-27372</define-tag>
<define-tag packages>spip</define-tag>
<define-tag isvulnerable>yes</define-tag>
<define-tag fixed>yes</define-tag>
<define-tag fixed-section>no</define-tag>

#use wml::debian::security



</dl>
