<define-tag pagetitle>DSA-5535-1 firefox-esr</define-tag>
<define-tag report_date>2023-10-25</define-tag>
<define-tag secrefs>CVE-2023-5721 CVE-2023-5724 CVE-2023-5725 CVE-2023-5728 CVE-2023-5730 CVE-2023-5732</define-tag>
<define-tag packages>firefox-esr</define-tag>
<define-tag isvulnerable>yes</define-tag>
<define-tag fixed>yes</define-tag>
<define-tag fixed-section>no</define-tag>

#use wml::debian::security



</dl>
