<define-tag pagetitle>DSA-5500-1 flac</define-tag>
<define-tag report_date>2023-9-18</define-tag>
<define-tag secrefs>CVE-2020-22219</define-tag>
<define-tag packages>flac</define-tag>
<define-tag isvulnerable>yes</define-tag>
<define-tag fixed>yes</define-tag>
<define-tag fixed-section>no</define-tag>

#use wml::debian::security



</dl>
