<define-tag pagetitle>DSA-5440-1 chromium</define-tag>
<define-tag report_date>2023-6-28</define-tag>
<define-tag secrefs>CVE-2023-3420 CVE-2023-3421 CVE-2023-3422</define-tag>
<define-tag packages>chromium</define-tag>
<define-tag isvulnerable>yes</define-tag>
<define-tag fixed>yes</define-tag>
<define-tag fixed-section>no</define-tag>

#use wml::debian::security



</dl>
