<define-tag pagetitle>DSA-5526-1 chromium</define-tag>
<define-tag report_date>2023-10-12</define-tag>
<define-tag secrefs>CVE-2023-5218 CVE-2023-5473 CVE-2023-5474 CVE-2023-5475 CVE-2023-5476 CVE-2023-5477 CVE-2023-5478 CVE-2023-5479 CVE-2023-5481 CVE-2023-5483 CVE-2023-5484 CVE-2023-5485 CVE-2023-5486 CVE-2023-5487</define-tag>
<define-tag packages>chromium</define-tag>
<define-tag isvulnerable>yes</define-tag>
<define-tag fixed>yes</define-tag>
<define-tag fixed-section>no</define-tag>

#use wml::debian::security



</dl>
