<define-tag pagetitle>DSA-5443-1 gst-plugins-base1.0</define-tag>
<define-tag report_date>2023-7-02</define-tag>
<define-tag secrefs>not yet available</define-tag>
<define-tag packages>gst-plugins-base1.0</define-tag>
<define-tag isvulnerable>yes</define-tag>
<define-tag fixed>yes</define-tag>
<define-tag fixed-section>no</define-tag>

#use wml::debian::security



</dl>
