<define-tag pagetitle>DSA-5553-1 postgresql-15</define-tag>
<define-tag report_date>2023-11-13</define-tag>
<define-tag secrefs>CVE-2023-5868 CVE-2023-5869 CVE-2023-5870 CVE-2023-39417 CVE-2023-39418</define-tag>
<define-tag packages>postgresql-15</define-tag>
<define-tag isvulnerable>yes</define-tag>
<define-tag fixed>yes</define-tag>
<define-tag fixed-section>no</define-tag>

#use wml::debian::security



</dl>
