<define-tag pagetitle>DSA-5568-1 fastdds</define-tag>
<define-tag report_date>2023-11-27</define-tag>
<define-tag secrefs>CVE-2023-42459 Bug#1054163</define-tag>
<define-tag packages>fastdds</define-tag>
<define-tag isvulnerable>yes</define-tag>
<define-tag fixed>yes</define-tag>
<define-tag fixed-section>no</define-tag>

#use wml::debian::security



</dl>
