<define-tag pagetitle>DSA-5528-1 node-babel7</define-tag>
<define-tag report_date>2023-10-16</define-tag>
<define-tag secrefs>CVE-2023-45133 Bug#1053880</define-tag>
<define-tag packages>node-babel7</define-tag>
<define-tag isvulnerable>yes</define-tag>
<define-tag fixed>yes</define-tag>
<define-tag fixed-section>no</define-tag>

#use wml::debian::security



</dl>
