<define-tag pagetitle>DSA-5371-1 chromium</define-tag>
<define-tag report_date>2023-3-09</define-tag>
<define-tag secrefs>CVE-2023-1213 CVE-2023-1214 CVE-2023-1215 CVE-2023-1216 CVE-2023-1217 CVE-2023-1218 CVE-2023-1219 CVE-2023-1220 CVE-2023-1221 CVE-2023-1222 CVE-2023-1223 CVE-2023-1224 CVE-2023-1225 CVE-2023-1226 CVE-2023-1227 CVE-2023-1228 CVE-2023-1229 CVE-2023-1230 CVE-2023-1231 CVE-2023-1232 CVE-2023-1233 CVE-2023-1234 CVE-2023-1235 CVE-2023-1236</define-tag>
<define-tag packages>chromium</define-tag>
<define-tag isvulnerable>yes</define-tag>
<define-tag fixed>yes</define-tag>
<define-tag fixed-section>no</define-tag>

#use wml::debian::security



</dl>
