<define-tag pagetitle>DSA-5561-1 firefox-esr</define-tag>
<define-tag report_date>2023-11-22</define-tag>
<define-tag secrefs>CVE-2023-6204 CVE-2023-6205 CVE-2023-6206 CVE-2023-6207 CVE-2023-6208 CVE-2023-6209 CVE-2023-6212</define-tag>
<define-tag packages>firefox-esr</define-tag>
<define-tag isvulnerable>yes</define-tag>
<define-tag fixed>yes</define-tag>
<define-tag fixed-section>no</define-tag>

#use wml::debian::security



</dl>
