<define-tag pagetitle>DSA-5459-1 amd64-microcode</define-tag>
<define-tag report_date>2023-7-25</define-tag>
<define-tag secrefs>CVE-2023-20593 Bug#1041863</define-tag>
<define-tag packages>amd64-microcode</define-tag>
<define-tag isvulnerable>yes</define-tag>
<define-tag fixed>yes</define-tag>
<define-tag fixed-section>no</define-tag>

#use wml::debian::security



</dl>
