<define-tag pagetitle>DSA-5449-1 webkit2gtk</define-tag>
<define-tag report_date>2023-7-07</define-tag>
<define-tag secrefs>CVE-2023-32439</define-tag>
<define-tag packages>webkit2gtk</define-tag>
<define-tag isvulnerable>yes</define-tag>
<define-tag fixed>yes</define-tag>
<define-tag fixed-section>no</define-tag>

#use wml::debian::security



</dl>
