<define-tag pagetitle>DSA-5311-1 trafficserver</define-tag>
<define-tag report_date>2023-1-08</define-tag>
<define-tag secrefs>CVE-2022-32749 CVE-2022-37392</define-tag>
<define-tag packages>trafficserver</define-tag>
<define-tag isvulnerable>yes</define-tag>
<define-tag fixed>yes</define-tag>
<define-tag fixed-section>no</define-tag>

#use wml::debian::security



</dl>
