<define-tag pagetitle>DSA-5404-1 chromium</define-tag>
<define-tag report_date>2023-5-17</define-tag>
<define-tag secrefs>CVE-2023-2721 CVE-2023-2722 CVE-2023-2723 CVE-2023-2724 CVE-2023-2725 CVE-2023-2726</define-tag>
<define-tag packages>chromium</define-tag>
<define-tag isvulnerable>yes</define-tag>
<define-tag fixed>yes</define-tag>
<define-tag fixed-section>no</define-tag>

#use wml::debian::security



</dl>
