<define-tag pagetitle>DSA-5546-1 chromium</define-tag>
<define-tag report_date>2023-11-02</define-tag>
<define-tag secrefs>CVE-2023-5480 CVE-2023-5482 CVE-2023-5849 CVE-2023-5850 CVE-2023-5851 CVE-2023-5852 CVE-2023-5853 CVE-2023-5854 CVE-2023-5855 CVE-2023-5856 CVE-2023-5857 CVE-2023-5858 CVE-2023-5859</define-tag>
<define-tag packages>chromium</define-tag>
<define-tag isvulnerable>yes</define-tag>
<define-tag fixed>yes</define-tag>
<define-tag fixed-section>no</define-tag>

#use wml::debian::security



</dl>
