<define-tag pagetitle>DSA-5430-1 openjdk-17</define-tag>
<define-tag report_date>2023-6-16</define-tag>
<define-tag secrefs>CVE-2023-21930 CVE-2023-21937 CVE-2023-21938 CVE-2023-21939 CVE-2023-21954 CVE-2023-21967 CVE-2023-21968</define-tag>
<define-tag packages>openjdk-17</define-tag>
<define-tag isvulnerable>yes</define-tag>
<define-tag fixed>yes</define-tag>
<define-tag fixed-section>no</define-tag>

#use wml::debian::security



</dl>
