<define-tag pagetitle>DLA-1057-1 libraw</define-tag>
<define-tag report_date>2017-8-14</define-tag>
<define-tag secrefs>CVE-2017-6886 CVE-2017-6887 Bug#864183</define-tag>
<define-tag packages>libraw</define-tag>
<define-tag isvulnerable>yes</define-tag>
<define-tag fixed>yes</define-tag>
<define-tag fixed-section>no</define-tag>

#use wml::debian::security

