<define-tag pagetitle>DLA-976-1 yodl</define-tag>
<define-tag report_date>2017-6-5</define-tag>
<define-tag secrefs>CVE-2016-10375</define-tag>
<define-tag packages>yodl</define-tag>
<define-tag isvulnerable>yes</define-tag>
<define-tag fixed>yes</define-tag>
<define-tag fixed-section>no</define-tag>

#use wml::debian::security

