<define-tag pagetitle>DLA-991-1 firefox-esr</define-tag>
<define-tag report_date>2017-6-18</define-tag>
<define-tag secrefs>CVE-2017-5470 CVE-2017-5472 CVE-2017-7749 CVE-2017-7750 CVE-2017-7751 CVE-2017-7752 CVE-2017-7754 CVE-2017-7756 CVE-2017-7757 CVE-2017-7758 CVE-2017-7764 CVE-2017-7771 CVE-2017-7772 CVE-2017-7773 CVE-2017-7774 CVE-2017-7776 CVE-2017-7777 CVE-2017-7778</define-tag>
<define-tag packages>firefox-esr</define-tag>
<define-tag isvulnerable>yes</define-tag>
<define-tag fixed>yes</define-tag>
<define-tag fixed-section>no</define-tag>

#use wml::debian::security

