<define-tag pagetitle>DLA-3529-1 datatables.js</define-tag>
<define-tag report_date>2023-08-15</define-tag>
<define-tag secrefs>CVE-2021-23445 Bug#995229</define-tag>
<define-tag packages>datatables.js</define-tag>
<define-tag isvulnerable>yes</define-tag>
<define-tag fixed>yes</define-tag>
<define-tag fixed-section>no</define-tag>

#use wml::debian::security

