<define-tag pagetitle>DLA-3537-1 intel-microcode</define-tag>
<define-tag report_date>2023-08-22</define-tag>
<define-tag secrefs>CVE-2022-40982 CVE-2022-41804 CVE-2023-23908 Bug#1043305</define-tag>
<define-tag packages>intel-microcode</define-tag>
<define-tag isvulnerable>yes</define-tag>
<define-tag fixed>yes</define-tag>
<define-tag fixed-section>no</define-tag>

#use wml::debian::security

