<define-tag pagetitle>DLA-3385-1 trafficserver</define-tag>
<define-tag report_date>2023-4-06</define-tag>
<define-tag secrefs>CVE-2022-31778 CVE-2022-31779 CVE-2022-32749 CVE-2022-37392</define-tag>
<define-tag packages>trafficserver</define-tag>
<define-tag isvulnerable>yes</define-tag>
<define-tag fixed>yes</define-tag>
<define-tag fixed-section>no</define-tag>

#use wml::debian::security

