<define-tag pagetitle>DLA-3426-1 netatalk</define-tag>
<define-tag report_date>2023-5-17</define-tag>
<define-tag secrefs>CVE-2021-31439 CVE-2022-0194 CVE-2022-23121 CVE-2022-23122 CVE-2022-23123 CVE-2022-23124 CVE-2022-23125 CVE-2022-43634 CVE-2022-45188 Bug#1034170 Bug#1024021</define-tag>
<define-tag packages>netatalk</define-tag>
<define-tag isvulnerable>yes</define-tag>
<define-tag fixed>yes</define-tag>
<define-tag fixed-section>no</define-tag>

#use wml::debian::security

