<define-tag pagetitle>DLA-3507-1 pandoc</define-tag>
<define-tag report_date>2023-07-25</define-tag>
<define-tag secrefs>CVE-2023-35936 CVE-2023-38745 Bug#1041976</define-tag>
<define-tag packages>pandoc</define-tag>
<define-tag isvulnerable>yes</define-tag>
<define-tag fixed>yes</define-tag>
<define-tag fixed-section>no</define-tag>

#use wml::debian::security

