<define-tag pagetitle>DLA-3579-1 elfutils</define-tag>
<define-tag report_date>2023-9-23</define-tag>
<define-tag secrefs>CVE-2020-21047</define-tag>
<define-tag packages>elfutils</define-tag>
<define-tag isvulnerable>yes</define-tag>
<define-tag fixed>yes</define-tag>
<define-tag fixed-section>no</define-tag>

#use wml::debian::security

