<define-tag pagetitle>DLA-3683-1 roundcube</define-tag>
<define-tag report_date>2023-12-05</define-tag>
<define-tag secrefs>CVE-2023-47272 Bug#1055421</define-tag>
<define-tag packages>roundcube</define-tag>
<define-tag isvulnerable>yes</define-tag>
<define-tag fixed>yes</define-tag>
<define-tag fixed-section>no</define-tag>

#use wml::debian::security

