<define-tag pagetitle>DLA-3402-1 wireshark</define-tag>
<define-tag report_date>2023-04-29</define-tag>
<define-tag secrefs>CVE-2023-1161 CVE-2023-1992 CVE-2023-1993 CVE-2023-1994 Bug#1033756 Bug#1034721</define-tag>
<define-tag packages>wireshark</define-tag>
<define-tag isvulnerable>yes</define-tag>
<define-tag fixed>yes</define-tag>
<define-tag fixed-section>no</define-tag>

#use wml::debian::security

