<define-tag pagetitle>DLA-3577-1 roundcube</define-tag>
<define-tag report_date>2023-09-22</define-tag>
<define-tag secrefs>CVE-2023-43770 Bug#1052059</define-tag>
<define-tag packages>roundcube</define-tag>
<define-tag isvulnerable>yes</define-tag>
<define-tag fixed>yes</define-tag>
<define-tag fixed-section>no</define-tag>

#use wml::debian::security

