<define-tag pagetitle>DLA-3344-1 nodejs</define-tag>
<define-tag report_date>2023-02-26</define-tag>
<define-tag secrefs>CVE-2022-43548 CVE-2023-23920 Bug#1023518 Bug#1031834</define-tag>
<define-tag packages>nodejs</define-tag>
<define-tag isvulnerable>yes</define-tag>
<define-tag fixed>yes</define-tag>
<define-tag fixed-section>no</define-tag>

#use wml::debian::security

