<define-tag pagetitle>DLA-3396-1 redis</define-tag>
<define-tag report_date>2023-04-21</define-tag>
<define-tag secrefs>CVE-2023-28856</define-tag>
<define-tag packages>redis</define-tag>
<define-tag isvulnerable>yes</define-tag>
<define-tag fixed>yes</define-tag>
<define-tag fixed-section>no</define-tag>

#use wml::debian::security
