<define-tag pagetitle>DLA-3441-1 sofia-sip</define-tag>
<define-tag report_date>2023-06-02</define-tag>
<define-tag secrefs>CVE-2023-32307</define-tag>
<define-tag packages>sofia-sip</define-tag>
<define-tag isvulnerable>yes</define-tag>
<define-tag fixed>yes</define-tag>
<define-tag fixed-section>no</define-tag>

#use wml::debian::security
