<define-tag pagetitle>DLA-3625-1 ruby-rmagick</define-tag>
<define-tag report_date>2023-10-22</define-tag>
<define-tag secrefs>CVE-2023-5349</define-tag>
<define-tag packages>ruby-rmagick</define-tag>
<define-tag isvulnerable>yes</define-tag>
<define-tag fixed>yes</define-tag>
<define-tag fixed-section>no</define-tag>

#use wml::debian::security

