<define-tag pagetitle>DLA-3567-1 c-ares</define-tag>
<define-tag report_date>2023-09-15</define-tag>
<define-tag secrefs>CVE-2020-22217</define-tag>
<define-tag packages>c-ares</define-tag>
<define-tag isvulnerable>yes</define-tag>
<define-tag fixed>yes</define-tag>
<define-tag fixed-section>no</define-tag>

#use wml::debian::security

