<define-tag pagetitle>DLA-3355-1 xapian-core</define-tag>
<define-tag report_date>2023-03-18</define-tag>
<define-tag secrefs>Bug#1032398</define-tag>
<define-tag packages>xapian-core</define-tag>
<define-tag isvulnerable>yes</define-tag>
<define-tag fixed>yes</define-tag>
<define-tag fixed-section>no</define-tag>

#use wml::debian::security

