<define-tag pagetitle>DLA-3657-1 activemq</define-tag>
<define-tag report_date>2023-11-20</define-tag>
<define-tag secrefs>CVE-2020-13920 CVE-2021-26117 CVE-2023-46604 Bug#1054909 Bug#982590</define-tag>
<define-tag packages>activemq</define-tag>
<define-tag isvulnerable>yes</define-tag>
<define-tag fixed>yes</define-tag>
<define-tag fixed-section>no</define-tag>

#use wml::debian::security

