<define-tag pagetitle>DLA-3667-1 python-requestbuilder</define-tag>
<define-tag report_date>2023-11-27</define-tag>
<define-tag packages>python-requestbuilder</define-tag>
<define-tag isvulnerable>yes</define-tag>
<define-tag fixed>yes</define-tag>
<define-tag fixed-section>no</define-tag>

#use wml::debian::security

