<define-tag pagetitle>DLA-3436-1 sssd</define-tag>
<define-tag report_date>2023-05-29</define-tag>
<define-tag secrefs>CVE-2018-16838 CVE-2019-3811 CVE-2021-3621 CVE-2022-4254 Bug#919051 Bug#931432 Bug#992710</define-tag>
<define-tag packages>sssd</define-tag>
<define-tag isvulnerable>yes</define-tag>
<define-tag fixed>yes</define-tag>
<define-tag fixed-section>no</define-tag>

#use wml::debian::security

