<define-tag pagetitle>DLA-3341-1 curl</define-tag>
<define-tag report_date>2023-02-24</define-tag>
<define-tag secrefs>CVE-2023-23916 Bug#1031371</define-tag>
<define-tag packages>curl</define-tag>
<define-tag isvulnerable>yes</define-tag>
<define-tag fixed>yes</define-tag>
<define-tag fixed-section>no</define-tag>

#use wml::debian::security

