<define-tag pagetitle>DLA-3677-1 gimp-dds</define-tag>
<define-tag report_date>2023-11-30</define-tag>
<define-tag secrefs>CVE-2023-44441</define-tag>
<define-tag packages>gimp-dds</define-tag>
<define-tag isvulnerable>yes</define-tag>
<define-tag fixed>yes</define-tag>
<define-tag fixed-section>no</define-tag>

#use wml::debian::security

