<define-tag pagetitle>DLA-3260-1 node-xmldom</define-tag>
<define-tag report_date>2023-01-01</define-tag>
<define-tag secrefs>CVE-2021-21366 CVE-2022-39353 Bug#1024736</define-tag>
<define-tag packages>node-xmldom</define-tag>
<define-tag isvulnerable>yes</define-tag>
<define-tag fixed>yes</define-tag>
<define-tag fixed-section>no</define-tag>

#use wml::debian::security

