<define-tag pagetitle>DLA-2373-1 qemu</define-tag>
<define-tag report_date>2020-09-14</define-tag>
<define-tag secrefs>CVE-2020-1711 CVE-2020-13253 CVE-2020-14364 CVE-2020-16092 Bug#968947 Bug#961297 Bug#949731</define-tag>
<define-tag packages>qemu</define-tag>
<define-tag isvulnerable>yes</define-tag>
<define-tag fixed>yes</define-tag>
<define-tag fixed-section>no</define-tag>

#use wml::debian::security

