<define-tag pagetitle>DLA-2293-1 mercurial</define-tag>
<define-tag report_date>2020-07-27</define-tag>
<define-tag secrefs>CVE-2017-17458 CVE-2018-13346 CVE-2018-13347 CVE-2018-13348 CVE-2018-1000132 CVE-2019-3902 Bug#901050 Bug#892964 Bug#927674</define-tag>
<define-tag packages>mercurial</define-tag>
<define-tag isvulnerable>yes</define-tag>
<define-tag fixed>yes</define-tag>
<define-tag fixed-section>no</define-tag>

#use wml::debian::security

