<define-tag pagetitle>DLA-1518-1 polarssl</define-tag>
<define-tag report_date>2018-9-25</define-tag>
<define-tag secrefs>CVE-2013-0169 CVE-2018-0497 CVE-2018-0498 CVE-2018-9988 CVE-2018-9989</define-tag>
<define-tag packages>polarssl</define-tag>
<define-tag isvulnerable>yes</define-tag>
<define-tag fixed>yes</define-tag>
<define-tag fixed-section>no</define-tag>

#use wml::debian::security

