<define-tag pagetitle>DLA-1611-1 libav</define-tag>
<define-tag report_date>2018-12-20</define-tag>
<define-tag secrefs>CVE-2014-9317 CVE-2015-6761 CVE-2015-6818 CVE-2015-6820 CVE-2015-6821 CVE-2015-6822 CVE-2015-6825 CVE-2015-6826 CVE-2015-8216 CVE-2015-8217 CVE-2015-8363 CVE-2015-8364 CVE-2015-8661 CVE-2015-8662 CVE-2015-8663 CVE-2016-10190 CVE-2016-10191</define-tag>
<define-tag packages>libav</define-tag>
<define-tag isvulnerable>yes</define-tag>
<define-tag fixed>yes</define-tag>
<define-tag fixed-section>no</define-tag>

#use wml::debian::security

