<define-tag pagetitle>DLA-1342-1 ldap-account-manager</define-tag>
<define-tag report_date>2018-4-9</define-tag>
<define-tag secrefs>CVE-2018-8763</define-tag>
<define-tag packages>ldap-account-manager</define-tag>
<define-tag isvulnerable>yes</define-tag>
<define-tag fixed>yes</define-tag>
<define-tag fixed-section>no</define-tag>

#use wml::debian::security

