<define-tag pagetitle>DSA-4506-1 qemu</define-tag>
<define-tag report_date>2019-8-24</define-tag>
<define-tag secrefs>CVE-2018-20815 CVE-2019-13164 CVE-2019-14378 Bug#873012 Bug#933741 Bug#931351</define-tag>
<define-tag packages>qemu</define-tag>
<define-tag isvulnerable>yes</define-tag>
<define-tag fixed>yes</define-tag>
<define-tag fixed-section>no</define-tag>

#use wml::debian::security



</dl>
