<define-tag pagetitle>DSA-5108-1 tiff</define-tag>
<define-tag report_date>2022-3-24</define-tag>
<define-tag secrefs>CVE-2022-0561 CVE-2022-0562 CVE-2022-0865 CVE-2022-0891 CVE-2022-0907 CVE-2022-0908 CVE-2022-0909 CVE-2022-0924 CVE-2022-22844</define-tag>
<define-tag packages>tiff</define-tag>
<define-tag isvulnerable>yes</define-tag>
<define-tag fixed>yes</define-tag>
<define-tag fixed-section>no</define-tag>

#use wml::debian::security



</dl>
