<define-tag pagetitle>DLA-1817-1 libgd2</define-tag>
<define-tag report_date>2019-06-11</define-tag>
<define-tag secrefs>CVE-2019-11038 Bug#929821</define-tag>
<define-tag packages>libgd2</define-tag>
<define-tag isvulnerable>yes</define-tag>
<define-tag fixed>yes</define-tag>
<define-tag fixed-section>no</define-tag>

#use wml::debian::security

