<define-tag pagetitle>DLA-1628-1 jasper</define-tag>
<define-tag report_date>2019-1-2</define-tag>
<define-tag secrefs>CVE-2018-18873 CVE-2018-19139 CVE-2018-19539 CVE-2018-19540 CVE-2018-19541 CVE-2018-19542 CVE-2018-20570 CVE-2018-20584 CVE-2018-20622</define-tag>
<define-tag packages>jasper</define-tag>
<define-tag isvulnerable>yes</define-tag>
<define-tag fixed>yes</define-tag>
<define-tag fixed-section>no</define-tag>

#use wml::debian::security

