<define-tag pagetitle>DLA-664-1 libxrender</define-tag>
<define-tag report_date>2016-10-18</define-tag>
<define-tag secrefs>CVE-2016-7949 CVE-2016-7950 Bug#840443</define-tag>
<define-tag packages>libxrender</define-tag>
<define-tag isvulnerable>yes</define-tag>
<define-tag fixed>yes</define-tag>
<define-tag fixed-section>no</define-tag>

#use wml::debian::security

