<define-tag pagetitle>DLA-468-1 libuser</define-tag>
<define-tag report_date>2016-5-12</define-tag>
<define-tag secrefs>CVE-2015-3245 CVE-2015-3246 Bug#793465</define-tag>
<define-tag packages>libuser</define-tag>
<define-tag isvulnerable>yes</define-tag>
<define-tag fixed>yes</define-tag>
<define-tag fixed-section>no</define-tag>

#use wml::debian::security

