<define-tag pagetitle>DLA-476-1 libidn</define-tag>
<define-tag report_date>2016-5-17</define-tag>
<define-tag secrefs>CVE-2015-2059</define-tag>
<define-tag packages>libidn</define-tag>
<define-tag isvulnerable>yes</define-tag>
<define-tag fixed>yes</define-tag>
<define-tag fixed-section>no</define-tag>

#use wml::debian::security

