<define-tag pagetitle>DLA-588-2 mongodb</define-tag>
<define-tag report_date>2016-8-9</define-tag>
<define-tag secrefs>CVE-2016-6494 Bug#832908 Bug#833087</define-tag>
<define-tag packages>mongodb</define-tag>
<define-tag isvulnerable>yes</define-tag>
<define-tag fixed>yes</define-tag>
<define-tag fixed-section>no</define-tag>

#use wml::debian::security

